{
    "count": 19535,
    "next": "https://api.spaceflightnewsapi.net/v4/articles/?limit=9&offset=9",
    "previous": null,
    "results": [
        {
            "id": 123456789,
            "title": "TEST",
            "url": "https://spacenews.com/lockheed-martin-offers-to-acquire-terran-orbital/",
            "image": "https://i0.wp.com/spacenews.com/wp-content/uploads/2024/03/terran-orbital-office.jpg",
            "news": "SpaceNews",
            "description": "Lockheed Martin has proposed acquiring smallsat manufacturer Terran Orbital, which it already owns a stake in and does business with, for more than $500 million.",
            "date": "2024-03-02T01:13:41Z",
            "launches": [],
            "events": []
        },
        {
            "id": 22765,
            "title": "Launch Roundup: SpaceX launching three Falcon 9 rockets including Crew-8; new launcher to debut from Japan",
            "url": "https://www.nasaspaceflight.com/2024/03/launch-roundup-0301/",
            "image": "https://www.nasaspaceflight.com/wp-content/uploads/2024/02/IMG_3953-1170x706.jpeg",
            "news": "NASASpaceflight",
            "description": "This week now has four flights scheduled, starting with Crew-8, which is to send a new crew to the International Space Station for a six-month tour of duty after launching from Florida. Starlink 6-41 from Cape Canaveral and Transporter 10 from Vandenberg Space Force Base are also on the docket along with the debut of a new small satellite launcher from Japan.",
            "date": "2024-03-02T00:10:33Z",
            "launches": [
                {
                    "launch_id": "2f101902-03dd-4b23-8546-d25ea514b36f",
                    "provider": "Launch Library 2"
                },
                {
                    "launch_id": "2f10c861-8c07-4af1-8873-cdba6d2566ba",
                    "provider": "Launch Library 2"
                },
                {
                    "launch_id": "42b2c850-ecee-4ec9-8496-cc304f4353f5",
                    "provider": "Launch Library 2"
                }
            ],
            "events": []
        },
        {
            "id": 22764,
            "title": "NASA cancels OSAM-1 satellite servicing technology mission",
            "url": "https://spacenews.com/nasa-cancels-osam-1-satellite-servicing-technology-mission/",
            "image": "https://i0.wp.com/spacenews.com/wp-content/uploads/2024/03/osam1.jpg",
            "news": "SpaceNews",
            "description": "NASA has canceled a multibillion-dollar project to demonstrate satellite servicing technologies that had suffered extensive delays and cost overruns.",
            "date": "2024-03-01T23:23:38Z",
            "launches": [],
            "events": []
        },
        {
            "id": 22762,
            "title": "Boeing gets $439 million contract for U.S. military communications satellite",
            "url": "https://spacenews.com/boeing-gets-439-million-contract-for-u-s-military-communications-satellite/",
            "image": "https://i0.wp.com/spacenews.com/wp-content/uploads/2024/02/WGS-11-approved-for-release.jpg",
            "news": "SpaceNews",
            "description": "The contract is for the WGS-12 Wideband Global Satcom geostationary satellite",
            "date": "2024-03-01T22:41:24Z",
            "launches": [],
            "events": []
        },
        {
            "id": 22761,
            "title": "Lockheed Martin looks to acquire spacecraft maker Terran Orbital for nearly $600 million",
            "url": "https://www.cnbc.com/2024/03/01/lockheed-martin-looks-to-acquire-terran-orbital-for-about-600-million.html",
            "image": "https://image.cnbcfm.com/api/v1/image/107037539-1648473367346-terran_orbital_nyse.png",
            "news": "CNBC",
            "description": "Lockheed Martin submitted a bid to acquire spacecraft manufacturer Terran Orbital, the defense giant revealed in a securities filing on Friday.",
            "date": "2024-03-01T22:33:13Z",
            "launches": [],
            "events": []
        },
        {
            "id": 22760,
            "title": "NASA shuts down $2 billion satellite refueling project after Maxar is cited for poor performance",
            "url": "https://www.cnbc.com/2024/03/01/nasa-shuts-down-maxar-led-osam-1-satellite-refueling-project.html",
            "image": "https://image.cnbcfm.com/api/v1/image/107381270-1709320078967-osam1-feb-2023-autonomous-capture-visual-servo-test.jpg",
            "news": "CNBC",
            "description": "NASA is shutting down a $2 billion project to test satellite refueling in space, it announced on Friday, after the agency’s auditor criticized the program’s lead contractor Maxar for poor performance.",
            "date": "2024-03-01T20:30:49Z",
            "launches": [],
            "events": []
        },
        {
            "id": 22759,
            "title": "Webinar – Beyond Earth: Blueprint for SMB Innovation",
            "url": "https://spacenews.com/webinar-beyond-earth-blueprint-for-smb-innovation/",
            "image": "https://i0.wp.com/spacenews.com/wp-content/uploads/2024/02/Webinar-Register-Dassault-240306-1.png",
            "news": "SpaceNews",
            "description": "Date: March 14th, 2024Time: 1 PM ET Join us on Thursday, March 14, 2024 as SpaceNews host Matt Adelhorn discusses Dassault Systèmes Blueprint for SMB Innovation with Jason Roberson and […]",
            "date": "2024-03-01T18:18:19Z",
            "launches": [],
            "events": []
        },
        {
            "id": 22758,
            "title": "SpaceX sends 23 more Starlink satellites into orbit on Leap Day",
            "url": "https://www.teslarati.com/spacex-sends-23-more-starlink-satellites-into-orbit-on-leap-day/",
            "image": "https://www.teslarati.com/wp-content/uploads/2024/03/spacex-starlink-launch-leap-day.jpeg",
            "news": "Teslarati",
            "description": "SpaceX sent 23 more Starlink high-speed internet satellites into orbit on Leap Day. The satellites were launched from a SpaceX Falcon 9...",
            "date": "2024-03-01T17:46:49Z",
            "launches": [
                {
                    "launch_id": "a9388d6a-a9cb-440c-8dc8-647a77833fe1",
                    "provider": "Launch Library 2"
                }
            ],
            "events": []
        },
        {
            "id": 22756,
            "title": "MSR problems illustrative of challenges for NASA flagship missions, audit concludes",
            "url": "https://spacenews.com/msr-problems-illustrative-of-challenges-for-nasa-flagship-missions-audit-concludes/",
            "image": "https://i0.wp.com/spacenews.com/wp-content/uploads/2023/06/msr-illustration.jpg",
            "news": "SpaceNews",
            "description": "As decision loom about its funding and architecture, a NASA review about the Mars Sample Return (MSR) program concluded its problems illustrate ongoing challenges the agency has managing large missions.",
            "date": "2024-03-01T13:01:18Z",
            "launches": [],
            "events": []
        }
    ]
}
